#GNU public license

#This program is free software; you can redistribute it and/or
 # modify it under the terms of the GNU General Public License
 # as published by the Free Software Foundation; either version 2
 # of the License, or (at your option) any later version.
 # 
 # This program is distributed in the hope that it will be useful,
 # but WITHOUT ANY WARRANTY; without even the implied warranty of
 # MERCHANTABILITY or FITNESS FOR A PARTICULAR PURPOSE.  See the
 # GNU General Public License for more details.
 # 
 # You should have received a copy of the GNU General Public License
 # along with this program; if not, write to the
 # Free Software Foundation, Inc.,
 # 51 Franklin Street, Fifth Floor,
 # Boston, MA  02110-1301, USA.

#print out trap note 1
    echo > /tmp/DUALISO/BP_TRAP6
#if using the steroid version
    if [ -f /tmp/mlv_dump_on_steroids_settings ]
    then 
    map=$(printf "%s\n" fpm)
    else
    map=$(printf "%s\n" map)
    fi 
    while ! [ x"$(cat /tmp/DUALISO/badpixelMLVaf)" = x ]
    do 
#get the file
    FILE_06="$(cat /tmp/DUALISO/badpixelMLVaf | head -1)"
    FILE_06o="$(cat /tmp/DUALISO/badpixelMLVaf | head -1 | cut -d "." -f1)"
#cut to the next name on the list
    echo "$(tail -n +2 /tmp/DUALISO/badpixelMLVaf)" > /tmp/DUALISO/badpixelMLVaf
#run dfort focus pixel script
    if ! grep '5D\|7D\|T1i\|500D\|T2i\|550D\|6D\|T3i\|600D\|50D' <<< $(mlv_dump -v "$FILE_06" | awk '/Camera Name/ { print $5,$6; exit 0}')
    then 
#check for a 100D
    dpass4=
    if grep '100D\|SL1\|X7' <<< $(mlv_dump -v "$FILE_06" | awk '/Camera Name/ { print $5,$6,$7; exit 0}')
    then
    dpass4=$(printf "%s\n" -c 100D)
    fi
#if using the steroid version
    if [ -f /tmp/mlv_dump_on_steroids_settings ]
    then 
    if [ -f /tmp/DUALISO/crop_rec ]
    then
    fpmutil -m croprec $dpass4 -o "$(cat /tmp/DUALISO/path_1)"/"$FILE_06o".$map "$(cat /tmp/DUALISO/path_1)"/"$FILE_06"
    else
#if your file includes RAWC metadata
    if grep 'sampling 3x3 (read 1 line, skip 2, bin 3 columns)' <<< $(mlv_dump -v "$FILE_06" | awk '/sampling/ { print $1,$2,$3,$4,$5,$6,$7,$8,$9,$10; exit}')
    then
    fpmutil -m croprec $dpass4 -o "$(cat /tmp/DUALISO/path_1)"/"$FILE_06o".$map "$(cat /tmp/DUALISO/path_1)"/"$FILE_06"
    else
    fpmutil -o "$(cat /tmp/DUALISO/path_1)"/"$FILE_06o".$map "$(cat /tmp/DUALISO/path_1)"/"$FILE_06"
    fi
    fi
    else
#check for new output folder
    if ! [ -f /tmp/output ]
    then
    if [ -f /tmp/DUALISO/crop_rec ]
    then
    fpm.sh -m crop_rec -o "$(cat /tmp/DUALISO/path_1)"/"$FILE_06o".$map "$(cat /tmp/DUALISO/path_1)"/"$FILE_06"
    else
#if your file includes RAWC metadata
    if grep 'sampling 3x3 (read 1 line, skip 2, bin 3 columns)' <<< $(mlv_dump -v "$FILE_06" | awk '/sampling/ { print $1,$2,$3,$4,$5,$6,$7,$8,$9,$10; exit}')
    then
    fpm.sh -m crop_rec -o "$(cat /tmp/DUALISO/path_1)"/"$FILE_06o".$map "$(cat /tmp/DUALISO/path_1)"/"$FILE_06"
    else
    fpm.sh -o "$(cat /tmp/DUALISO/path_1)"/"$FILE_06o".$map "$(cat /tmp/DUALISO/path_1)"/"$FILE_06"  
    fi 
    fi
    fi
    fi
    fi
    done
#remove trap
rm /tmp/DUALISO/BP_TRAP6 






